{"href": "https://api.spotify.com/v1/users/2gc5r8c8ddholwa97b49ayuo1/playlists?offset=0&limit=10", "items": [{"collaborative": false, "description": "", "external_urls": {"spotify": "https://open.spotify.com/playlist/6FabFIj2QG0YsIAH9mJiv3"}, "href": "https://api.spotify.com/v1/playlists/6FabFIj2QG0YsIAH9mJiv3", "id": "6FabFIj2QG0YsIAH9mJiv3", "images": [{"height": 640, "url": "https://mosaic.scdn.co/640/ab67616d0000b2730b51f8d91f3a21e8426361aeab67616d0000b273286a0837ff3424065a735e0aab67616d0000b27351c02a77d09dfcd53c8676d0ab67616d0000b2738399047ff71200928f5b6508", "width": 640}, {"height": 300, "url": "https://mosaic.scdn.co/300/ab67616d0000b2730b51f8d91f3a21e8426361aeab67616d0000b273286a0837ff3424065a735e0aab67616d0000b27351c02a77d09dfcd53c8676d0ab67616d0000b2738399047ff71200928f5b6508", "width": 300}, {"height": 60, "url": "https://mosaic.scdn.co/60/ab67616d0000b2730b51f8d91f3a21e8426361aeab67616d0000b273286a0837ff3424065a735e0aab67616d0000b27351c02a77d09dfcd53c8676d0ab67616d0000b2738399047ff71200928f5b6508", "width": 60}], "name": "Rock", "owner": {"display_name": "redRose", "external_urls": {"spotify": "https://open.spotify.com/user/2gc5r8c8ddholwa97b49ayuo1"}, "href": "https://api.spotify.com/v1/users/2gc5r8c8ddholwa97b49ayuo1", "id": "2gc5r8c8ddholwa97b49ayuo1", "type": "user", "uri": "spotify:user:2gc5r8c8ddholwa97b49ayuo1"}, "primary_color": null, "public": true, "snapshot_id": "MjIsYjgyZDE5N2ZiMDk1ODE1ZmE5ZmY4OGI0ZmQ3ZWQzOTI2NThiZmM2NQ==", "tracks": {"href": "https://api.spotify.com/v1/playlists/6FabFIj2QG0YsIAH9mJiv3/tracks", "total": 21}, "type": "playlist", "uri": "spotify:playlist:6FabFIj2QG0YsIAH9mJiv3"}, {"collaborative": false, "description": "", "external_urls": {"spotify": "https://open.spotify.com/playlist/6v7HPaZaE9aHBoxItaFI5u"}, "href": "https://api.spotify.com/v1/playlists/6v7HPaZaE9aHBoxItaFI5u", "id": "6v7HPaZaE9aHBoxItaFI5u", "images": [{"height": 640, "url": "https://i.scdn.co/image/ab67616d0000b2738d28ea225a03a0eed6f6a400", "width": 640}], "name": "I'm embarrassed about this playlist", "owner": {"display_name": "redRose", "external_urls": {"spotify": "https://open.spotify.com/user/2gc5r8c8ddholwa97b49ayuo1"}, "href": "https://api.spotify.com/v1/users/2gc5r8c8ddholwa97b49ayuo1", "id": "2gc5r8c8ddholwa97b49ayuo1", "type": "user", "uri": "spotify:user:2gc5r8c8ddholwa97b49ayuo1"}, "primary_color": null, "public": true, "snapshot_id": "MywxZTA0MzA3ZDVhYmQ4MjlkZGIxYjIyMWM1OGQ0MmFkNGJkOTQzMjk3", "tracks": {"href": "https://api.spotify.com/v1/playlists/6v7HPaZaE9aHBoxItaFI5u/tracks", "total": 2}, "type": "playlist", "uri": "spotify:playlist:6v7HPaZaE9aHBoxItaFI5u"}, {"collaborative": false, "description": "", "external_urls": {"spotify": "https://open.spotify.com/playlist/1ImMvtOOya4CpZL9SSDD2e"}, "href": "https://api.spotify.com/v1/playlists/1ImMvtOOya4CpZL9SSDD2e", "id": "1ImMvtOOya4CpZL9SSDD2e", "images": [{"height": 640, "url": "https://mosaic.scdn.co/640/ab67616d0000b27311b63834a1a557cc77403458ab67616d0000b27355de63b8aaf464fe8146b4f1ab67616d0000b273664020dc5b2af2d454ffa2d4ab67616d0000b273c3af0c2355c24ed7023cd394", "width": 640}, {"height": 300, "url": "https://mosaic.scdn.co/300/ab67616d0000b27311b63834a1a557cc77403458ab67616d0000b27355de63b8aaf464fe8146b4f1ab67616d0000b273664020dc5b2af2d454ffa2d4ab67616d0000b273c3af0c2355c24ed7023cd394", "width": 300}, {"height": 60, "url": "https://mosaic.scdn.co/60/ab67616d0000b27311b63834a1a557cc77403458ab67616d0000b27355de63b8aaf464fe8146b4f1ab67616d0000b273664020dc5b2af2d454ffa2d4ab67616d0000b273c3af0c2355c24ed7023cd394", "width": 60}], "name": "God is a woman (and she's gay)", "owner": {"display_name": "redRose", "external_urls": {"spotify": "https://open.spotify.com/user/2gc5r8c8ddholwa97b49ayuo1"}, "href": "https://api.spotify.com/v1/users/2gc5r8c8ddholwa97b49ayuo1", "id": "2gc5r8c8ddholwa97b49ayuo1", "type": "user", "uri": "spotify:user:2gc5r8c8ddholwa97b49ayuo1"}, "primary_color": null, "public": true, "snapshot_id": "MTcsZWI5MzljNjcyZjA0OTIwNTJjZDg5MDU2ZTk4ZjljZjRhMGRhNjk5Ng==", "tracks": {"href": "https://api.spotify.com/v1/playlists/1ImMvtOOya4CpZL9SSDD2e/tracks", "total": 16}, "type": "playlist", "uri": "spotify:playlist:1ImMvtOOya4CpZL9SSDD2e"}, {"collaborative": false, "description": "", "external_urls": {"spotify": "https://open.spotify.com/playlist/2iDwcGxkUiOjJknTy0RTQr"}, "href": "https://api.spotify.com/v1/playlists/2iDwcGxkUiOjJknTy0RTQr", "id": "2iDwcGxkUiOjJknTy0RTQr", "images": [{"height": 640, "url": "https://mosaic.scdn.co/640/ab67616d0000b2733899712512f50a8d9e01e951ab67616d0000b2737dd8f95320e8ef08aa121dfeab67616d0000b27382589dd295a78e6d5ca9afb9ab67616d0000b273d74f4550a6e409bf51652db7", "width": 640}, {"height": 300, "url": "https://mosaic.scdn.co/300/ab67616d0000b2733899712512f50a8d9e01e951ab67616d0000b2737dd8f95320e8ef08aa121dfeab67616d0000b27382589dd295a78e6d5ca9afb9ab67616d0000b273d74f4550a6e409bf51652db7", "width": 300}, {"height": 60, "url": "https://mosaic.scdn.co/60/ab67616d0000b2733899712512f50a8d9e01e951ab67616d0000b2737dd8f95320e8ef08aa121dfeab67616d0000b27382589dd295a78e6d5ca9afb9ab67616d0000b273d74f4550a6e409bf51652db7", "width": 60}], "name": "Candy", "owner": {"display_name": "redRose", "external_urls": {"spotify": "https://open.spotify.com/user/2gc5r8c8ddholwa97b49ayuo1"}, "href": "https://api.spotify.com/v1/users/2gc5r8c8ddholwa97b49ayuo1", "id": "2gc5r8c8ddholwa97b49ayuo1", "type": "user", "uri": "spotify:user:2gc5r8c8ddholwa97b49ayuo1"}, "primary_color": null, "public": true, "snapshot_id": "NDMsMWM4YTcwMWQzYzJkMjRiNDg2NWNiOWUwODE5OWRmNzg1YmM1YmQxNw==", "tracks": {"href": "https://api.spotify.com/v1/playlists/2iDwcGxkUiOjJknTy0RTQr/tracks", "total": 26}, "type": "playlist", "uri": "spotify:playlist:2iDwcGxkUiOjJknTy0RTQr"}, {"collaborative": false, "description": "", "external_urls": {"spotify": "https://open.spotify.com/playlist/1FOvOo7y5MxuJEssgNsePM"}, "href": "https://api.spotify.com/v1/playlists/1FOvOo7y5MxuJEssgNsePM", "id": "1FOvOo7y5MxuJEssgNsePM", "images": [{"height": 640, "url": "https://mosaic.scdn.co/640/ab67616d0000b2734e5df11b17b2727da2b718d8ab67616d0000b273b272deac82338ffd20d29818ab67616d0000b273b7c8f5fe522c41d590c8e4e5ab67616d0000b273bf01fd0986a195d485922167", "width": 640}, {"height": 300, "url": "https://mosaic.scdn.co/300/ab67616d0000b2734e5df11b17b2727da2b718d8ab67616d0000b273b272deac82338ffd20d29818ab67616d0000b273b7c8f5fe522c41d590c8e4e5ab67616d0000b273bf01fd0986a195d485922167", "width": 300}, {"height": 60, "url": "https://mosaic.scdn.co/60/ab67616d0000b2734e5df11b17b2727da2b718d8ab67616d0000b273b272deac82338ffd20d29818ab67616d0000b273b7c8f5fe522c41d590c8e4e5ab67616d0000b273bf01fd0986a195d485922167", "width": 60}], "name": "Sad", "owner": {"display_name": "redRose", "external_urls": {"spotify": "https://open.spotify.com/user/2gc5r8c8ddholwa97b49ayuo1"}, "href": "https://api.spotify.com/v1/users/2gc5r8c8ddholwa97b49ayuo1", "id": "2gc5r8c8ddholwa97b49ayuo1", "type": "user", "uri": "spotify:user:2gc5r8c8ddholwa97b49ayuo1"}, "primary_color": null, "public": true, "snapshot_id": "NzksNzEyYTY4YjZiY2NiOWZlYTA5OTJlZmY1MTRmNmE3NDI2NGFkOTExNg==", "tracks": {"href": "https://api.spotify.com/v1/playlists/1FOvOo7y5MxuJEssgNsePM/tracks", "total": 78}, "type": "playlist", "uri": "spotify:playlist:1FOvOo7y5MxuJEssgNsePM"}, {"collaborative": false, "description": "", "external_urls": {"spotify": "https://open.spotify.com/playlist/1Pl3Vtj5ekxQra6wHfSLIe"}, "href": "https://api.spotify.com/v1/playlists/1Pl3Vtj5ekxQra6wHfSLIe", "id": "1Pl3Vtj5ekxQra6wHfSLIe", "images": [{"height": 640, "url": "https://mosaic.scdn.co/640/ab67616d0000b27315a67578922d65121b12073dab67616d0000b2732e981530e5e8e1d5e95ae507ab67616d0000b27362e6288a5887b95176cca29eab67616d0000b273f7da7c0f322b7a1c95190d92", "width": 640}, {"height": 300, "url": "https://mosaic.scdn.co/300/ab67616d0000b27315a67578922d65121b12073dab67616d0000b2732e981530e5e8e1d5e95ae507ab67616d0000b27362e6288a5887b95176cca29eab67616d0000b273f7da7c0f322b7a1c95190d92", "width": 300}, {"height": 60, "url": "https://mosaic.scdn.co/60/ab67616d0000b27315a67578922d65121b12073dab67616d0000b2732e981530e5e8e1d5e95ae507ab67616d0000b27362e6288a5887b95176cca29eab67616d0000b273f7da7c0f322b7a1c95190d92", "width": 60}], "name": "K-Pop", "owner": {"display_name": "redRose", "external_urls": {"spotify": "https://open.spotify.com/user/2gc5r8c8ddholwa97b49ayuo1"}, "href": "https://api.spotify.com/v1/users/2gc5r8c8ddholwa97b49ayuo1", "id": "2gc5r8c8ddholwa97b49ayuo1", "type": "user", "uri": "spotify:user:2gc5r8c8ddholwa97b49ayuo1"}, "primary_color": null, "public": true, "snapshot_id": "MjQ2LDRjYzk3M2EwYWZmNzU1MWI2Njk1MjUwZjY1NjIzNjE2NDg5ZjkwNmI=", "tracks": {"href": "https://api.spotify.com/v1/playlists/1Pl3Vtj5ekxQra6wHfSLIe/tracks", "total": 241}, "type": "playlist", "uri": "spotify:playlist:1Pl3Vtj5ekxQra6wHfSLIe"}, {"collaborative": false, "description": "Stay on top of the world with the Firebreathers and rock on.", "external_urls": {"spotify": "https://open.spotify.com/playlist/37i9dQZF1DX9tzt7g58Xlh"}, "href": "https://api.spotify.com/v1/playlists/37i9dQZF1DX9tzt7g58Xlh", "id": "37i9dQZF1DX9tzt7g58Xlh", "images": [{"height": null, "url": "https://i.scdn.co/image/ab67706f000000035324fd190d03c6f3160c9bc8", "width": null}], "name": "This Is Imagine Dragons", "owner": {"display_name": "Spotify", "external_urls": {"spotify": "https://open.spotify.com/user/spotify"}, "href": "https://api.spotify.com/v1/users/spotify", "id": "spotify", "type": "user", "uri": "spotify:user:spotify"}, "primary_color": null, "public": false, "snapshot_id": "MTYzNTU3Mzg1MSwwMDAwMDA3ZTAwMDAwMTdjY2ZjYzY1OWIwMDAwMDE3YzAwYzhmMjg5", "tracks": {"href": "https://api.spotify.com/v1/playlists/37i9dQZF1DX9tzt7g58Xlh/tracks", "total": 60}, "type": "playlist", "uri": "spotify:playlist:37i9dQZF1DX9tzt7g58Xlh"}, {"collaborative": false, "description": "", "external_urls": {"spotify": "https://open.spotify.com/playlist/1AItKfpnMsF0CfSOOeuZzP"}, "href": "https://api.spotify.com/v1/playlists/1AItKfpnMsF0CfSOOeuZzP", "id": "1AItKfpnMsF0CfSOOeuZzP", "images": [{"height": null, "url": "https://i.scdn.co/image/ab67706c0000bebb2865b96dc6126c8dd44643dc", "width": null}], "name": "Butter with Hoseok", "owner": {"display_name": "Rxvxs", "external_urls": {"spotify": "https://open.spotify.com/user/22ys6rkmg46md5k7ngsfw75za"}, "href": "https://api.spotify.com/v1/users/22ys6rkmg46md5k7ngsfw75za", "id": "22ys6rkmg46md5k7ngsfw75za", "type": "user", "uri": "spotify:user:22ys6rkmg46md5k7ngsfw75za"}, "primary_color": null, "public": false, "snapshot_id": "MjI2LDhlZDYxYTQyZDY5Y2NjZGZmYmUzN2UzM2U2YTU1MjYwNDY4NGM5OTA=", "tracks": {"href": "https://api.spotify.com/v1/playlists/1AItKfpnMsF0CfSOOeuZzP/tracks", "total": 48}, "type": "playlist", "uri": "spotify:playlist:1AItKfpnMsF0CfSOOeuZzP"}, {"collaborative": false, "description": "", "external_urls": {"spotify": "https://open.spotify.com/playlist/5Wl6BwwtEaaaa5Sg7k0ovw"}, "href": "https://api.spotify.com/v1/playlists/5Wl6BwwtEaaaa5Sg7k0ovw", "id": "5Wl6BwwtEaaaa5Sg7k0ovw", "images": [{"height": 640, "url": "https://mosaic.scdn.co/640/ab67616d0000b273474301b91976f6310bbe90a1ab67616d0000b273930f686fe89425c7b6bf9a7dab67616d0000b273937af329667311f4b2831616ab67616d0000b273fe0d9870d6d8e18c3a00c658", "width": 640}, {"height": 300, "url": "https://mosaic.scdn.co/300/ab67616d0000b273474301b91976f6310bbe90a1ab67616d0000b273930f686fe89425c7b6bf9a7dab67616d0000b273937af329667311f4b2831616ab67616d0000b273fe0d9870d6d8e18c3a00c658", "width": 300}, {"height": 60, "url": "https://mosaic.scdn.co/60/ab67616d0000b273474301b91976f6310bbe90a1ab67616d0000b273930f686fe89425c7b6bf9a7dab67616d0000b273937af329667311f4b2831616ab67616d0000b273fe0d9870d6d8e18c3a00c658", "width": 60}], "name": "\ud83d\udd25\ud83d\udd25\ud83d\udd25 (literally)", "owner": {"display_name": "redRose", "external_urls": {"spotify": "https://open.spotify.com/user/2gc5r8c8ddholwa97b49ayuo1"}, "href": "https://api.spotify.com/v1/users/2gc5r8c8ddholwa97b49ayuo1", "id": "2gc5r8c8ddholwa97b49ayuo1", "type": "user", "uri": "spotify:user:2gc5r8c8ddholwa97b49ayuo1"}, "primary_color": null, "public": false, "snapshot_id": "MzgsMTM3YzNkOTFmNDY1MmU2MDc2ZDZmNzdhYmEzYjY0NzdhNDc5OWY0Yg==", "tracks": {"href": "https://api.spotify.com/v1/playlists/5Wl6BwwtEaaaa5Sg7k0ovw/tracks", "total": 24}, "type": "playlist", "uri": "spotify:playlist:5Wl6BwwtEaaaa5Sg7k0ovw"}, {"collaborative": false, "description": "sad girlz luv money", "external_urls": {"spotify": "https://open.spotify.com/playlist/2gG41ZK87WkDtHVG1iYA0h"}, "href": "https://api.spotify.com/v1/playlists/2gG41ZK87WkDtHVG1iYA0h", "id": "2gG41ZK87WkDtHVG1iYA0h", "images": [{"height": null, "url": "https://i.scdn.co/image/ab67706c0000bebb97761b924e4bc4ae5c6f55ab", "width": null}], "name": "sugar daddy's funeral", "owner": {"display_name": "\u2661.\u2022* bel\u00e9n *\u2022.\u2661", "external_urls": {"spotify": "https://open.spotify.com/user/sadnessfairy"}, "href": "https://api.spotify.com/v1/users/sadnessfairy", "id": "sadnessfairy", "type": "user", "uri": "spotify:user:sadnessfairy"}, "primary_color": null, "public": false, "snapshot_id": "OTcwLDQ4OWI2YmVlYTQwZGMwMWFmYjQ0OWY3ZDQ1YWJlOWYxZTNiN2JjNzY=", "tracks": {"href": "https://api.spotify.com/v1/playlists/2gG41ZK87WkDtHVG1iYA0h/tracks", "total": 80}, "type": "playlist", "uri": "spotify:playlist:2gG41ZK87WkDtHVG1iYA0h"}], "limit": 10, "next": "https://api.spotify.com/v1/users/2gc5r8c8ddholwa97b49ayuo1/playlists?offset=10&limit=10", "offset": 0, "previous": null, "total": 26}